        #10022 +(56)- [X]

        <DragonOnna> Roninjoey, Uses of an AOL disk, #68. Earmuffs
        (glue some fur on one side, then attach a U-shaped piece of
        bent coathanger to both disks).
        <Zibro> DragonOnna, Uses for a shitty script, #58. NOTHING.
        (ie: no use, so don't use it because it's fucking stupid)

