        #100415 +(1503)- [X]

        <windows_macgeek> Is there a way to overclock a compact flash
        card to have more storage?
        <InvisableMan> umm..... can you overclock the memory in your
        computer to give you more storage?
        <windows_macgeek> HAHAHA!!!! Of course not, idiot!
        <InvisableMan> you just took the words right out of my mouth.
        <windows_macgeek> ...Oh.

