        #101386 +(367)- [X]

        <VanJeans> How do you know when it's time to wash dishes and
        clean the house?
        <VanJeans> Look inside your pants; if you have a penis, it's
        not time.

