        #10158 +(513)- [X]

        <vegetaandnappa> nothing, just pissed at my GAY mouse
        <shqua> Your mouth has a sexual preference?
        <shqua> Err...
        <shqua> Mouse.
        shqua (~shqua@net47-206.fhsu.edu) is now known as DrFreud
        <DrFreud> Oh, my...

