       #10186 +(271)- [X]

       ]-eX-[Mad^AfK is
       x0z@prefers.linux.and.never.uses.progs.from.m-i-c-r-o-s-0-f-t.de
       * nfwuor
       []-eX-[Mad^AfK VERSION reply]: mIRC32 v6.0 + dEfCoN oNe v0.74.65
       by Ecronika

