        #102453 +(148)- [X]

        <sh`> hmmm i wonder if i can burn at 52x now
        <sh`> time to add to my pile of hardware sitting in/on the
        case
        <sh`> brb
        * sh` has quit IRC
        <xyonz> he needs a girlfriend or something

