        #103480 +(69)- [X]

        <kAwAiIaZnChIk659> oh, you wanna play it like that efnet?
        <kAwAiIaZnChIk659> disconnect me will you?
        <kAwAiIaZnChIk659> i'll leech my warez elsewhere, thank you!

