        #103985 +(341)- [X]

        <M4`Shock> i was talkin to these fine ladies
        <M4`Shock> and i sorta put my head down
        <M4`Shock> and puked quickly and continued my conversation
        <M4`Shock> they barely noticed

