        #10509 +(29)- [X]

        <Acheron> Don't hpb's brag about their l33t skillz and high
        ping when
        they're winning?
        <Xaotika> you think i have 1337 skills? HAHAHAHSAHASHAHAHAFA
        <Xaotika> they rest of you just suck :)

