        #10665 +(252)- [X]

        HolyViper7: it could be worse :P
        Ebyan: It could be better
        HolyViper7: everything could be better
        Ebyan: everything could be worse
        HolyViper7: not oprah
        HolyViper7: she cant get any worse.

