        #107188 +(479)- [X]

        (Lp|dust1n[WWGL]) god damn
        (Wheelman56) ?
        (Lp|dust1n[WWGL]) this bread is hard
        (Lp|dust1n[WWGL]) fuck!
        (Lp|dust1n[WWGL]) I thru it at the window and the window is
        broke
        (Lp|dust1n[WWGL]) brb

