        #10937 +(501)- [X]

        *** IlhMansiz sets mode: +o goTurkey
        *** goTurkey sets mode: -ooo ccg-afk da-away Drugh|
        *** goTurkey sets mode: -ooo IlhMansiz RavenL0v3 v\zzz
        *** goTurkey sets mode: +b *!*@undernet.org
        *** goTurkey was kicked by X (### MASSDEOPPRO TRIGGERED! ###)
        <v\zzz> IlhMansiz
        <v\zzz> if you op anyone here again you will be on perm ban
        <v\zzz> nuff said
        later in a prv window :
        <IlhMansiz> sorry
        <IlhMansiz> who is nuff?

