        #110362 +(77)- [X]

        <ecoli> i think that drugging and assault are an important
        part of foreplay
        <ecoli> yeah
        <ecoli> like
        <ettenyl> roofies will do that.
        <ecoli> if i wanted something that would fuck me back, i'd
        bang a goat.

