        #11115 +(98)- [X]

        <@brosie    > you know what sucks
        <@brosie    > when you shave your ballsack
        <@brosie    > and then get diarrhea
        <@brosie    > and some of the poo gets in a cut you didn't
        know was there
        <@brosie    > and you get gangrene
        <@brosie    > in your nuts

