        #11384 +(208)- [X]

        [@{Defenderz}] heh... you know this is all the british's
        fault, technically
        [@{Defenderz}] I don't blame Britain... but... it still is
        thier flaw they sparked this whole thing :-P
        [+Dark_Brood] Yeah they went to america in the first place

