        #11444 +(15)- [X]

        <synk> ok
        <synk> I know this is a dumb question
        <synk> but how do you tell what kind of fish something is
        <synk> like bass or northern and stuff

