        #115626 +(575)- [X]

        <Lailoken> On Cinemax tonight they're showing Shrek from 11:00
        to 12:30 and then Best Sex Ever from 12:30 to 1:00.
        <Lailoken> Somewhere in America parents leave their child to
        go to a dinner party, "Here honey, you just watch Shrek and
        we'll be home some time after midnight."

