        #11611 +(187)- [X]

        Solo Herron: why did it have to be hot outside today?
        Solo Herron: I mean I was like "hmm mind numbing boredness
        here in the cold library" walk out side "OH GOD THE EXCITMENT
        OF THE HEAT"

