        #11621 +(271)- [X]

        <The_Fellator> She passed out on the couch so I covered her
        up, turned off the tv and left
        <Temujin> Covered her up with manchowder.
        <The_Fellator> I washed that off
        <The_Fellator> well
        <The_Fellator> with urine

