        #1175 +(94)- [X]

        <Loser> i just got an idea
        <Loser> i bet noone's done this before
        <Loser> get like 100 guys to come into a bottle
        <Loser> and then pay a chick to drink it
        <AlmtyBob> Loser: um, that's what bukkake is all about
        <ryo-ohki> I have videos to prove it.
        <ryo-ohki> We're talking like a fucking clear saucer FULL of
        spooge
        <ryo-ohki> Like, she could pour some cereal on it and still
        not have enough cereal to finish the jizz off.

