        #118047 +(192)- [X]

        <Mephistol> irn and I have a proposal for you
        <Invizigo> really?
        <Mephistol> yes
        <Invizigo> tell me
        <Mephistol> its along the lines of 'wnt 2 cibur'

