        #118573 +(1160)- [X]

        <Md0za> HI MEN
        <MadHattr> Men is plural, I'm singular
        <Md0za> >:
        <Md0za> u have botnet?
        <MadHattr> no.
        <Md0za> <:
        <Md0za> i have botnet
        <Md0za> u want flood?
        <MadHattr> I know your IP and I work for your ISP. Want
        internet disconnect?
        <Md0za> no
        <Md0za> <:
        <Md0za> u heck?
        <MadHattr> no
        <Md0za> <
        <Md0za> <:
        <Md0za> i am hack
        <Md0za> heck
        <Md0za> i am 14 yers old
        <MadHattr> I've noticed

