        #119638 +(184)- [X]

        <remix> i was gonna come back and say "fuck the children" but
        i realized that it wouldnt sound too good
        <ecoli> yeah
        <melly> ic
        <mkart64> yeah then you go to jail
        <ecoli> besides, some of us are way ahead of you :D

