        #119957 +(1709)- [X]

        <Fluidmist> so, who wants to come to mexico with me?
        <technophobe> i would, but i dont speak mexican
        <Fluidmist> i thought you spoke spanish.
        <techophobe> i do, i dont speak mexican though
        <Fluidmist> are you serious?
        <technophobe> what? yes
        <Fluidmist> who wants to be the one to explain this to him?

