        #1225 +(431)- [X]

        [timmo] i liked the great gatsby movie
        [timmo] because gatsby was harrison ford
        [timmo] and i cant pass up an opertunity
        [timmo] to see him get shot

