        #12292 +(195)- [X]

        Daeg says, "We are watching the dead deer show."
        Una says, "A whole show about dead deers?"
        Daeg says, "It seems to be."
        Una says, "This isn't that Canadian soft porn channel again,
        is it? :)"

