        #1249 +(164)- [X]

        <shadowrye> okay
        <shadowrye> who wants a box
        <|Raven|> i do
        <shadowrye> good
        <shadowrye> now
        <shadowrye> who wants to pay for a colo
        <|Raven|> i don't

