        #126186 +(1433)- [X]

        <Wallrod> i hate having my room right next to the bathroom
        <Wallrod> i have to hear my dad take a shit
        <Wallrod> EVEN DEATH METAL DOESNT COVER ALL THE FREQUENCIES MY
        DAD'S ASS BROADCASTS ON

