        #128472 +(60)- [X]

        <Goomba> ford?
        <fordprefect> wot?
        <Goomba> nothing
        <kopo|cool`n`icy> lol
        <kopo|cool`n`icy> i used to do that with my friends
        <Herr-Statto> until they got pissed off
        <kopo|cool`n`icy> yeah
        <kopo|cool`n`icy> now, i have no one left :(
        <kopo|cool`n`icy> exept you guys
        * kopo|cool`n`icy hangs himself
        <Goomba> good
        <kopo|cool`n`icy> i'm dead, cant hear you
        <Goomba> good

