        #13583 +(481)- [X]

        <SinclairC> Anyone been to Taco Bell lately?
        <Piccolo> No. I hate mexican. :]
        <SinclairC> Taco Bell isn't Mexican, it's Taco Bell
        <Piccolo> No. I hate Taco Bell. :]
        <SinclairC> Taco Bell isn't Taco Bell, it's hamburgers
        <Piccolo> No. I hate Hamburgers. :] Cheeseburgers are a
        different matter.
        <SinclairC> Taco Bell isn't hamburgers, it's Dragonball Z
        <Piccolo> Damm you

