        #137411 +(328)- [X]

        <flint`> well
        <flint`> this wc3 channel has taught me one thing about korea
        <flint`> they have completely abolished sexism
        <flint`> and now they all just act like girls

