        #137568 +(157)- [X]

        <@Moonpie> if you get into an rpg battle with the plastic wrap
        around some sort of food you are the more stereotypical nerd
        in the world
        <+silv|LUNCH> it wasn't an rpg battle

