        #137629 +(-257)- [X]

        <evilive> I've got the crime of the century
        <evilive> we'll say we're offering free chicken as a
        promotion, right?
        <evilive> then when the niggers show up we'll shoot them and
        take their gold teeth.

