        #138789 +(668)- [X]

        Tridao: i got 100%
        Tridao: :D
        Xeero: On what?
        Tridao: the iq test
        Xeero: ...
        Tridao:  100% of what/
        Xeero: Did it give you a number?
        Xeero: That says
        Xeero: 'Your IQ is ___"
        Tridao: 100%...:(
        Xeero: Okay, your IQ is not high.

