        #13894 +(29)- [X]

        <sat985> u know how to overlock the chip defcon?
        <Bouyo> Put your processor into mineral oil and you can
        overclock a 300 Mhz to 1.5 Ghz ( This has been done )

