        #13973 +(1085)- [X]

        <Zack`> I wore my boxers backwards all day yesterday
        <shea_> haha
        <Zack`> And I didn't realize it until I scratched my ass
        <Zack`> And my hand went through the slot and made contact
        with my crack
        <Zack`> And I was like WTF

