        #14028 +(29)- [X]

        <Pepper> BEEP BEEP YOU DONT HAVE ANCIENT 640x480 VESA DRIVERS
        ISNTALLED IM NOT GONNA CONTINUE YOU SUCK BUY AN OLDER PC
        <Pepper> BEEP BEEP EXTENDED MEMORY: 2408204282048208420 BYTES
        INTEGER OVERFLOW DIVIDE BY ZERO CRASH

