        #14178 +(517)- [X]

        *** Emo has joined #GDProject
        <Emo> hwat kind of emo do u like emo?
        <Emo> oh shit
        <Emo> thats me
        <Emo> lol
        <Emo> boy do i look like a dumbass
        <Emo> forgot i switched comps

