        #143356 +(509)- [X]

        [9:43:pm] <beau> man, i have so much respect for anyone that
        designs adult web sites
        [9:43:pm] <GodTheMod> its harder than it looks
        [9:43:pm] <xie> Hahahahaha
        [9:43:pm] <beau> i've been sorting through material for my
        site, and i can't help but get a hard on, and that means much
        less blood in my head.. i JUST CANT WORK LIKE THAT!

