        #14411 +(135)- [X]

        <PrincessLeia2> crow, i think you would be a happier person if
        you had a fireplace... i feel so much better after we burn
        junkmail
        <Titu§ Crow> i would much rather burn junkppl

