        #1450 +(416)- [X]

        <buq> Intra - do you have any other stuff that is on the same
        basic level as moby?
        <phatkro> No one is on Moby's level
        <phatkro> He's stuck on level 3, world 7 of the original Super
        mario Bros.

