        #15193 +(1018)- [X]

        <jenn> canada is ned flanders to usa's homer simpson.
        <slurpee> hahahahahahahah
        <slurpee> so true
        <slurpee> "hidely-hodely, neighborino!"  "shut up, canada."

