        #15634 +(231)- [X]

        <drunkers> do you know who i am?
        <vinnieT> nope
        <drunkers> i could rip your eyes out and stick them in your
        knee and make your knee read a book
        <vinnieT> i dont read

