        #15699 +(547)- [X]

        <outcaste> Mr Gates donated $38 million to aids research?>
        <brian2> yeah, outcaste, he wants windows to be the only
        deadly disease
          affecting millions

