        #1615 +(303)- [X]

        <eastjinx> from 19 to now, my world has completely changed
        <DigDug> my world changes every 6 months :[
        <|steve|> the world has changed 3 times since the last time i
        been out
        <sev> world changes for me everyday
        <|steve|> but our penis size stays the same

