        #162323 +(597)- [X]

        <Deltan> I think that machine needs a reboot
        <Deltan> Try to edit the net adapter properties.  "An
        unexpected error has occured" with an OK button.
        <Deltan> Where's the, "No it's not fucking OK" button.

