        #16359 +(529)- [X]

        <knox> i used to use zippers but my foreskin got stick in it
        <knox> i went to velcro and had some pubic hair problems
        <knox> now i just wear dresses

