        #16438 +(260)- [X]

        <^bat-sai> i once went to lismore
        <^bat-sai> for a baseball competition
        <^bat-sai> when i was 13
        <^bat-sai> i was mocked
        <^bat-sai> because i was the only one who thought we were
        there to play baseball on the snes

