        #164986 +(1018)- [X]

        <mikeD> ya i got into a fight im so pissed....
        <abrutii> well... did you win?
        <mikeD> no but i got a good hit in
        <abrutii> ya? thats good, where did you hit him?
        <mikeD> i hit his hand with my eye
        <abrutii> lmfao

