        #16527 +(1057)- [X]

        <CraNKGod> YOU KNOW WHAT'LL BE NEAT ABOUT LIVING ON MY OWN
        <Funk> Being able to run up and down the hallway naked but for
        a sock on your erect penis?
        <CraNKGod> BEING ABLE TO DRINK STRAIGHT OUT OF THE MILK JUG
        <Funk> Oh.
        <Funk> Man, you need a better imagination.

