        #16541 +(337)- [X]

        ** Moses is now known as Cain....
        <Cain> oh no I killed my bro ....
        <KeeperS> ....
        <KeeperS> what a stirring rendition of the bible ....
        * KeeperS is moved to tears

