        #16579 +(46)- [X]

        <kel> she's not great looking
        <kel> has looked better
        <kel> but has a funny nose
        <kel> thin and wear tight clothes
        <kel> hrm
        <kel> I'm talking about 17 year old girl
        <kel> I'm gonna stop

