        #166566 +(969)- [X]

        <twanks> i met this chick at the bar the other day
        <twanks> and she was all like "i wanna fuck your brains out"
        steamy woman...
        <twanks> so i was all "hell yeh"
        <twanks> so we come back to my place
        <twanks> and she jumps on my bed, strips down
        <twanks> then she opens her legs wide, begins strokin the ole
        axe wound
        <twanks> and shes moaning and stuff
        <twanks> and dude
        <twanks> i reckon i coulda had sex

