        #16812 +(160)- [X]

        Pat877:    nice...
        OB1Jenobe: w3rd
        Pat877:    ok stop that
        OB1Jenobe: wh4t?
        Pat877:    i don't under stand that crap.. and u know it
        OB1Jenobe: 0 |<
        Pat877:    dick

