        #16822 +(621)- [X]

        <Packet> my boss just walked by one of the contractors that
        get canned friday
        <Packet> and goes "HEY! I thought I fired you!"
        <hmodes> "oh wait, i did..  HAHAHAHAHA!"
        <hmodes> i aspire to crush people's souls like that some day

