        #169172 +(575)- [X]

        « Kil88|Savage » i'm gonna have a polo with my name on it :D
        <Bennie> im gonna get some boxers with <dick> on the front
        <Bennie> then im gonna get a sock
        « Squeeb » lol :)
        « Squeeb » ace
        <Bennie> with </dick> on
        <Bennie> :D
        « Squeeb » LMAO

