        #16970 +(655)- [X]

        <redfox> hmmm.. i heard a loud noise downstairs
        <redfox> nobody's home, brb... investigating
        <Rezn0r> it's your sense of self-worth running away
        <Rezn0r> and knocking over furniture on its way out

