        #17023 +(1124)- [X]

        <+TlMMAH> hey gary
        <+TlMMAH> what is porno that i should download
        <+TlMMAH> i am putting my dick into your hands here
        <+TlMMAH> not literally but, you know

