        #17058 +(1563)- [X]

        <D|S-Alias> my balls are in such gay positions
        <D|S-Alias> they are all on one side in a cluster
        <D|S-random> i fuckin hate that
        <D|S-random> when they stick to ur leg
        <D|S-random> ER
        <D|S-random> i just wanna rip them off
        <D|S-Alias> im talking about pool yo

