        #1716 +(100)- [X]

        <occifer> my penis was fat
        <occifer> not to long ago
        <occifer> so i employed a well known chineese remedy
        <occifer> you simple tug and pull at it for a couple of
        minutes

