        #173460 +(2718)- [X]

        <Pixistix>  I'm going to name my kids Control, Alt, and
        Delete.
        <Pixistix>  If they ever get to be a problem I'll just hit
        them all twice
        <Pixistix>  Problem solved.

