        #173682 +(272)- [X]

        marek: hey, this is great. we finally have our own chatroom on
        irc.
        marek: now we can be on bash with our amazingly witty retorts,
        counter retorts, and general repartee!
        Palladia: fag

