        #1749 +(361)- [X]

        <timmo> what music should i download tonight
        <timmo> oh shit
        <timmo> i think im missing the carebears;[
        <c-rOCK> CAREBEARS IS STILL ON?
        <c-rOCK> NO WAY WHAT CHAN
        <timmo> toon disney
        <c-rOCK> dude I loved that show

