        #1834 +(848)- [X]

        [09:50] <Xerox> Hey, anyone who knows Japanese, what does
        "kikurimu" mean?
        [09:52] <Squizzle> "I am a preteen with bouncing breasts."
        [09:53] <Zonkto> There are probably three or four words for
        that.
        [09:53] <Zonkto> Sort of like the Eskimos having so many words
        for snow.

