        #1836 +(505)- [X]

        <McMoo> some gorgeous ladies asked me if i knew where building
        PHR was today
        <McMoo> i should have worked it all smooth style
        <McMoo> and told them it was in my pants

