        #187938 +(1233)- [X]

        <Fina> After American Idol, they came out with The Sims :
        Superstar
        <Fina> After this Harry Potter crap got popular, they came out
        with Makin' Magic
        <Fina> lol What if next year we get a bunch of WW2 movies?
        <Fina> The Sims : Hailin' Hitler

