        #18909 +(313)- [X]

        <jade> don't become one of them
        <jade> geeks = evil
        <jade> except as sex slaves.
        *** jade was kicked by Pita (be nice to geeks. They make IRC
        possible.)

