        #1924 +(365)- [X]

        (nexxai) char *peopleOnEarth, *peopleMyHoes; if (sizeof
        (peopleOnEarth) == sizeof(peopleMyHoes)) { printf("Hi.\n"); }
        (nexxai) Hi.
        (nexxai) <-- not a geek.

