        #192857 +(302)- [X]

        <Yurijin> HOLY CRAP
        <Yurijin> i was playing a song
        <SoSul> hellos
        <Yurijin> and forgot i left some porn video in the play list
        <Yurijin> and all of a sudden
        <Drayth> ROFL
        <MonopolyMan> XD.
        <Yurijin> "AHHHH <music ends>" "OHH OHH OH <slobber> OHHH"

