        #1988 +(3985)- [X]

        <kritical> matts: bikes go faster than cars...a bike at 60 mph
        is a lot faster than a car at 60 mph
        <matts> kritical: um no...
        <kritical> matts: um yes
        <kritical> my sisters sport car at 60 mph goes faster than my
        dads explorer at 60 mph
        <kritical> a bike at 60 mph will blow by a car at 60 mph

