        #20031 +(387)- [X]

        <Fryboy>  A fast internet connection has more long term value.
        Your typical 18
                  year old girl is good for about 1 night....then
        either she gets
                  bored and moves on or you want to strangle her after
        hearing "Like,
                  you know, and stuff" in EVERY goddam sentence.
        <Fryboy> Now Gigabit Ethernet....that's the gift that keeps on
        giving.

