        #202659 +(259)- [X]

        <Madism> i have a penis
        <Defveggy> show me mine if you show me yours
        <Madism> k
        <Madism> 8=D
        <Shinry> rofl
        <Madism> its cold

