        #202870 +(964)- [X]

        <Comrade_Zoo> If an animal rapes you, can you sue it's owner?
        <Revolution_Man> I did.
        <Revolution_Man> And I won.
        <Revolution_Man> Take THAT, Richards Fish Mart.

