        #20305 +(126)- [X]

        <sara> i <3'ed george michael
        <sara> till
        <sara> he started wearing his goatee like satan
        <[pele]> till he started sucking cock in bathrooms
        <[pele]> oh
        <[pele]> that too

