        #206712 +(345)- [X]

        <afk> thats why people who "try" to commit suicide dont really
        want to die
        <SLoW> did you know, on average, men are more likely to
        succeed then women?
        <SLoW> and that a man's weapon of choice is a gun, and a
        woman's is pills
        <Candy^^> men never care about making a mess
        <Candy^^> ;p

