        #208102 +(859)- [X]

        <Kormiic> Ever look at your own code and think, "What the fuck
        is this meant to do?!"
        <maznaz> most mornings
        <Kormiic> I said "code", not "cock"
        <Kormiic> ;)
        <maznaz> oh
        <maznaz> yeah, still most mornings :)
        <Kormiic> Right, if that doesn't get approved for Bash, I'll
        rub cum in my eyes.

