        #2084 +(318)- [X]

        <Sharkey> When you talk to your cactus at the end of the quest
        he says "He got hard?"
        <kill> at least you wouldn't have to water a cactus
        <kill> it's pretty low-maintenance, if you got one
        <Starchild> That's my ideal adopted kid. One you don't have to
        water or feed.
        <kill> you just have to cloth it
        <DigiGnome> And you don't even have to do that, as long as you
        don't let it out of its room.

