        #21058 +(1569)- [X]

        <vboydx7> Why the hell are all you fucking PS2 fanboy shits
        here?!?
        *** PSXcellent was kicked by vboydx7
        *** GTA43v3r was kicked by vboydx7
        *** Sony RoXors was kicked by vboydx7
        <Solid Sony> Hang on..!
        *** Dead_Shot_Sniper was kicked by vboydx7
        *** Solid Sony was kicked by vboydx7
        *** Hot2trot was kicked by vboydx7
        <vboydx7> Woah, wait a minute, this isn't the Gamecube forum
        o_O
        *** Quits: vboydx7 (No route to host)

