        #21200 +(1591)- [X]

        * Jeff challenges fastpak to a jousting match at high noon
        <fastpak> shit. I..uh...my horse is..uh...nonexistant.
        <fastpak> so i guess i'll have to decline
        <FlyNavy> you have to understand that when Jeff says
        "jousting" he really means gay sex
        <FlyNavy> and when he says "wanna play a round of WC3?"
        <FlyNavy> he also means gay sex
        <Jeff> ...
        <FlyNavy> pretty much anything he says boils down to gay sex
        <FlyNavy> :D
        <Jeff> want to have some gay sex?
        <Tektronic> sorry dont have cs installed jeff

