        #2148 +(594)- [X]

        <Kazz> I will only baby talk to my kid.
        <Kazz> Even when he's 40.
        <JDigital> hee
        <Kazz> "How's my cutest little sweet baby pie pumpkinheeeead?"
        <Kazz> "Fuck off, dad."
        <Lee-Ham> Issum wiggle umpkins?
        * Silkenray laughs
        <Kashan> I'm going to teach my kid the wrong words

