        #21761 +(169)- [X]

        <JesusGink> ;D
        <JesusGink> er
        <JesusGink> :D
        <JesusGink> hard to take off bra and hit shift-; at the same
        time
        <tabbyfoo> lol

