        #21795 +(640)- [X]

        <Mercster>   ever shot a Glock?
        <Eppy>   i don't know any glocks, but if they're like most
        people i've met, i probably wouldn't mind squeezing off a few
        rounds at them

