        #218187 +(220)- [X]

        <Aglandiir> All you have to do is have a huge amount of energy
        <Aglandiir> etc.
        <Aglandiir> you can make a l33t food replicator
        <+Bayonetto> I must admit
        <Aeriana> But I want n3rd to DCC me food everyday.
        <Aeriana> ;)
        <+Bayonetto> I'd rather be able to fire myself to the coast or
        something.
        <+Triskelios> but you're cooking it...
        <+Triskelios> =P
        <Aeriana> No, I'm too lazy.
        <+Arty2> you'll download it through kazaa
        <+Triskelios> haha
        <+Triskelios> pirated food
        <Aeriana> Then they'd be suing you for copyrights.
        <+Bayonetto> illegaly shared pizza.
        <Aglandiir> It would be dummy food
        <+Arty2> cracks for pasta
        <+Triskelios> free KFC for everyone
        <Aglandiir> it wouldn't be a burger
        <Aglandiir> it would be a photo of Madonna screaming at you
        <Aglandiir> YOU BTCH WHY ARE YOU STEALING MY FOOD

