        #221090 +(520)- [X]

        <Fig_leaf> i saw this black kid the other day
        <Fig_leaf> he was wearing a jersey type shirt with 'DMX - Ruff
        Riderz' on it.
        <Fig_leaf> i asked what 'DMX' has to do with Teddy Roosevelt?
        <Fig_leaf> and he hit me
        <Fig_leaf> >:(

