        #22160 +(425)- [X]

        <jiy> every time i join a suicide channel on dalnet i get
        banned and accused of being a troll
        <jiy> today, when the fuckers were discussing cutting, i said
        "tell me how to cut myself"
        <@skold> you dont know how to cut yourself?
        <@skold> how the fuck can you screw that up?
        <@skold> no wonder you want to kill yourself

