        #22546 +(364)- [X]

        <cams> red: yea, well i'll take your land
        <cams> then lie to you
        <cams> and give you deseases
        <reddiwhipper> that was the native americans
        <cams> no, actually, im doing my impression of a woman

