        #22803 +(372)- [X]

        <+[zc]Kinslayer> I tried to have this customer read off his
        modem's brand name and he said he can't read...stupid Memphis
        customers.
        <+[zc]Kinslayer> so I was wondering wtf he's going to do with
        the Internet, but then I remembered you don't have to read
        pr0n
        <+[zc]Kinslayer> as long as you can type "neked chiqs" you're
        all set

