        #23020 +(146)- [X]

        <jbou> I live in the liberal state of MA, and we can
        drinkalcohol, and penetrate naked women at the same time
        <YCDK> Drink alcohol, penetrate naked women... #insert
        "kennedy_joke.h"

