        #23261 +(304)- [X]

        (Griff) dalnet has a small man who visits each user's home in
        turn,. he is like santa,
        but he is the nickname man
        (Griff) if you have been a good boy or girl he will let you
        register your nick
        (Griff) if you have been bad he will make you Guest34535
        (Griff) he's St. NickServ

