        #23377 +(255)- [X]

        <Jean> I typed in the tracert mail.yahoo.com now what
        <Tabby_Tech> hit enter
        <Jean> there is no enter button
        <Tabby_Tech> on your keyboard

