        #23393 +(51)- [X]

        (@{basara}): chu beyond the blackest chu,
        (@{basara}): Deeper then the deepest pika,
        (@{basara}): King of pikachu who shines like gold on the sea
        of electric
        (@{basara}): I call upon thee, swear myself to thee,
        (@{basara}): Let the fools who stand before me be destroyed by
        the power you and I possess...
        (@{basara}): PIKASLAVE!!!

