        #2379 +(59)- [X]

        (rageboy) id tell you to put my box in the topic so i could
        sell shells but its not static ip and only 28.8 connection
        (rageboy) and im in windows right now

