        #238276 +(727)- [X]

        Dublyner: I was up in Winnepeg and some guy on the street
        asked me if I had two loonies for a toonie. I thought he was
        going to rape me or something.

