        #244180 +(1452)- [X]

        <Langly1> Bash.org is like an IQ test, All those who get on it
        have low IQ's
        <Langly1> and if anyone submits that quote ill track them down
        and kill them

