        #244583 +(263)- [X]

        <jeff> ok
        <jeff> some dumb russian old lady asked me today where the
        exit was at work
        <jeff> how did she get in the store in the first place

