        #246129 +(120)- [X]

        * nekogirl knits
        * Ryft watches her knit
        <nekogirl> crap!
        <nekogirl> my yarn just ended!
        <Ryft> And you didn't see that coming?
        <nekogirl> no!

