        #254023 +(521)- [X]

        Ishbu566: haha i guess i was fucked up though
        Ishbu566: cuz i had my headphones on
        Ishbu566: and pink floyd blasting
        Ishbu566: and my dad came out and was yelling at me to turn it
        down
        Ishbu566: the headphones werent plugged in =(

