        #2558 +(1540)- [X]

        <McMooo> the hell.
        <McMooo> my sister invited some friend over to use my computer
        <McMooo> and failed to tell me
        <McMooo> so i get back from physics and there's a strange girl
        in my room.
        <McMooo> a girl in my room is strange enough as it is

