        #258104 +(1362)- [X]

        <rjbs> billn: you some kinda jehovah's witness??
        <billn> rjbs: I wouldn't say 'witness.' I mean, I clearly saw
        God hit that guy with his car, but there's no way I'm gonna
        testify against him.

