        #26349 +(3)- [X]

        madxxx> heh i know Digi spits rather then swallows ;P
        <LordCrey> :)
        <Digi> i prefer 2 play with it and dribble it all over then
        make u kiss me
        <Gh0stFac3> that's when i zip my pants up and leave
        <Gh0stFac3> ;)
        <madxxx> hey one told me her mouth is not suppose to be filled
        with a few million little fish ;P
        <Gh0stFac3> haha
        <Gh0stFac3> i tell her she spits my kids out she'll be
        spitting teeth out with them

