        #286 +(3060)- [X]

        <Infe> what happens if you try to recharge an alkaline battery
        <HomerJ> blows up
        <Andrigaar> Don't they explode?
        <Andrigaar> I wonder if it's violent or just some leaking
        battery acid.
        <Infe> i think it's all a scam to get you to pay more for
        'rechargeables' and ---
        <Infe> AHHHHHHHHHHH MY FACE
        <Infe> AHHHHHHHHHHHHHHH

