        #2906 +(264)- [X]

        <EFX> take a banana .. cut off the top .. squeeze the banana
        out gently keeping the peel intact.. get a empty toilet paper
        roll .. put the peel inside of it .. warm it up in the
        microwave .. and then stick your cock in it

