        #294947 +(1030)- [X]

        Terron: I told him I was sick
        Terron: He was all like.. bullshit you're not sick
        reddkin26: So how'd you get off of work yesterday then?
        Terron: I said, "I'm fucking my sister, is that sick enough
        for you mother fucker?"
        Terron: I got my final paycheck yesterday

