        #307358 +(644)- [X]

        <Arctic_Wolf> My friends parents bought him the nice DDR pads
        so he could lose some weight.
        <Arctic_Wolf> He gets in trouble whenever they find out he's
        bought a non DDR PS2 game.
        <Arctic_Wolf> "HOW IS ARMORED CORE 2 SUPPOSED TO HELP YOU LOSE
        WEIGHT, WONG?"

