        #310380 +(356)- [X]

        <Rapala> i'm not sure if i'm supposed to go to work tonight
        <Rapala> so i'm gonna sit here and see if they call
        <DrunkOM> sounds like a plan
        <Rapala> there are 2 others doing it as well, and the best way
        to be wrong is to be wrong in a group
        <HFM> the best way to be wrong is to find out it's really not
        your kid..

