        #3111 +(1154)- [X]

        (Brodie) If I go see a doctor and tell him I can't maintain an
        erection, will he give me Viagra?
        (Brodie) I need viagra for my paln
        (Samadhi) He may check you though
        (Samadhi) Like give you a HJ to make sure you're telling the
        truth
        (Brodie) Sweet
        (Brodie) This is win win

