        #31343 +(1197)- [X]

        <mrphilez> how many inches is 69mm?
        <GLHTurbo> let me measure my penis
        <Avram> how would that help? you have a 69mm penis?
        <GLHTurbo> yes
        <_neil> 69mm = 6.9cm = 2.71"
        <GLHTurbo> yes i do
        <GLHTurbo> oh wait

