        #31577 +(291)- [X]

        <Godsey> there is a problem w/ our house :)
        <Godsey> there is a small cosmetic call next to the toilet
        <Godsey> and I'm afraid my fat ass won't fit :)
        <Godsey> so I'm taking the wall out
        <etrigan> with your ass?

