        #31759 +(623)- [X]

        essiah00Guy: I can't stand your fuckery.
        jass10816: lol
        jass10816: my mom is standing right behind me
        jass10816: good one
        Messiah00Guy: THE DRUGS YOU ORDERED
        Messiah00Guy: ARE ON THEIR WAY
        Messiah00Guy: GG
        jass10816: im going to get you
        Messiah00Guy: From behind?

