        #31891 +(209)- [X]

        <tester> what did I miss?
        <maklic> well
        <maklic> i was just fucking AdrameleK's momma
        <maklic> other than that nothing much
        <tester> send the log

