        #329222 +(767)- [X]

        <glix> oh shit... i farted and a little more than air came
        out.....
        <glix> fuck
        <glix> anyone who has tips on how to leave the chair without
        making a mess, msg me ASAP
        <cainBoy> lmao

