        #33853 +(222)- [X]

        <siliconcenturion>: man, half the sales reps at the toyota
        dealership should be named Uncle Ben
        <siliconcenturion>: black guys trying to sell me rice

