        #33948 +(242)- [X]

        <kinzillah> kronos is portable! *hrrrrk* *thump* *clunk* errr,
        maybe not
        <Pseudonym> kinzillah: It's about 50 lbs
        <Pseudonym> The case being about 40 lbs of that
        <Gygaxis> wtf is the case?!?!
        <kinzillah> 50 lbs != portable
        <Pseudonym> Wimp.
        <Gygaxis> jesus christ, did you mod a god damn cinder block?

