        #34089 +(376)- [X]

        <*kraken> oh
        <*kraken> my
        <*kraken> god
        <*kraken> my mom sent me an email
        <*kraken> and in it at one point she said
        <*kraken> "i saw that they have personal ads on the
        internet...ever thought of placing one?"
        <*kraken> THANKS MOM!

