        #34123 +(164)- [X]

        <daenonok> "it's advised that, after removing new crest white
        strips&#8482; you find three complete strangers, and give them
        oral sex, to get the taste of hydrogen peroxide out of your
        mouth"

