        #34192 +(264)- [X]

        <JustAGirl> did i miss something here?
        <KArmA-> were you sleeping?
        <KArmA-> is your ass sore?
        <JustAGirl> no on both counts
        ð LabMonkey hides the vacuum hose
        <KArmA-> then no

