        #342068 +(1134)- [X]

        <patteam717> If Neo got into a fight with Aragorn, Neo would
        win hands down
        <kissmeimtoxic> that may be true but if Agent Smith got into a
        fight with Elrond that would just be dumb

