        #342596 +(1599)- [X]

        <Calvinosaur> You missed philosophy class today, huh?
        <71mm34> yeh
        <Calvinosaur> You know how Mr. Warren's policy is to read all
        the passed notes out loud to the entire class?
        <71mm34> no ive never expereinced it
        <Calvinosaur> Well, we really threw him for a loop today ...
        <Calvinosaur> Josh passed a note that made it around the whole
        class before Mr. W caught it.
        <Calvinosaur> Mr. W read it, walked out the door, and came
        back in ten seconds later.
        <Calvinosaur> We were in stitches at this point.
        <71mm34> wat did it say
        <Calvinosaur> "Mr. W's fly is open."

