        #342779 +(984)- [X]

        NbVb16Mb009: i know have you ever had the weed that smells
        like christmas trees
        NbVb16Mb009: it is some good shit
        Me: hahahahhahah, you got dicked over. somebody sold you some
        pine tree branches and told you it was weed
        Me: do you smoke?
        NbVb16Mb009: no dude im a dealer shit it was weed and yea i
        smoke all the time
        NbVb16Mb009: have you ever made a beer bong
        Me: bull shit, you aren't a dealer
        Me: hahahahah, are you retarded?
        NbVb16Mb009: ok but if you ever want some just talk to me
        about it
        Me: just so you know, i don't believe you. what kind of weed
        do you sell?
        NbVb16Mb009: shrooms

