        #34367 +(162)- [X]

        [19:45] <Rydberg> TI83+!
        19:46] <Moa2020> HP48 !!!!
        [19:46] <^JeppZer^> NOKIA!
        [19:46] <Moa2020> Nokia doesn't make calculators fool
        [19:47] <^JeppZer^> they got calculators on their phones.. DUH

