        #34423 +(64)- [X]

        <ian_/#linuxwarez> Just think, in 3 years this RAM will
        probably be in some toxic heap in china while little chinamen
        pick through it with solvents to extract gold.

