        #34665 +(390)- [X]

        *** ubermensch- is now known as peer
        <peer> DIE POOFSTER
        *** Quits: Poofster (Solo84@202.151.232.16) (Read error:
        Connection reset by peer)

