        #351298 +(569)- [X]

        Esi: people have installed linux on their Xboxes so...
        Blayne: When people install Linux on their dishwasher, then
        I'll give them a nod
        Esi: is that a challenge?

