        #3578 +(605)- [X]

        <myzery> MIAMI -- An 81-year-old woman who arrived in court
        Thursday in a wheelchair plotted to smuggle 9,931 doses of
        Ecstasy in her luggage on a flight from London, authorities
        said.
        <matts> hahah
        <[prefix]> haha
        <matts> What a doofus
        <skycriesx> whered u read that
        <myzery> the onion

