        #36419 +(752)- [X]

        <Shibbz> my oven goes to like 750, lady who used to live here
        was a chef or some shit
        <Shibbz> i can bake a baby in like 10 mins
        <Shibbz> OOPS i mean chicken...
        <Shibbz> yeah chicken

