        #364339 +(2298)- [X]

        <rhyno> okay
        <rhyno> I must be losing my mind
        <rhyno> I just walked to the PJ station
        <rhyno> because I can't find my car keys
        <rhyno> and they were right fucking here an hour ago
        <DaemonX> pj station?
        <rhyno> yeah
        <rhyno> gas station
        <rhyno> but the thing was
        <rhyno> I was going there to get gas
        <DaemonX> without your car?
        <rhyno> and I couldn't find my keys
        <rhyno> so I just thought "I'll walk"
        <rhyno> go all the way up there.. and I'm like "wtf was I
        going here for.."
        <rhyno> "OH YEAH! DUMBASS!"
        <rhyno> then walked back
        <DaemonX> ... i can't even comment on that

