        #36769 +(55)- [X]

        <UN-REAL> ihel leyha id use http mirc hahaha
        <UN-REAL> like idd iwhe ni worked at the ama
        <@EzyRider> we need an interpreter in here for UN-REAL..
        <@EzyRider> fucked if i can follow half of what he says
        <@[[x]]> LOL
        <@Bloody_D_Death> LOL

