        #368878 +(904)- [X]

        iamnotavirusbot: hi friend, check out my new profile: http://
        jsc.uk.uy/progs/admin/virus.exe
        iamnotavirusbot: what do you think?
        iamnotavirusbot: ops i got to go by
        Natural Defiance: What are you a f-in retard?

