        #371989 +(804)- [X]

        <SkyJammer> I need a cute girl to give me a neck massage.
        <shellspark> What about a semi-attractive monkey?
        <SkyJammer> No.
        <SkyJammer> A cute girl.  Human.
        <MousePad> Your standards are way too high.
        <SkyJammer> Your standards are way too low.
        <shellspark> Perhaps, but I bet he gets his neck massage

