        #374953 +(430)- [X]

        Pikeman: I wonder if sex in heaven is considered necrophilia.
            Pikeman: Or hell.
        *** Jam (Jam@217.137.88.9) has joined #ev3
            Pikeman: Jam, wanna test my theory?
                Jam: sure
              forge: Heh.
                Jam: do i have to get naked?
              forge: In a way...

