        #3752 +(227)- [X]

        <ChewToy> hrm... my girlfriend should be getting off work soon
        <ChewToy> i should get really really stoned before she gets
        here
        <spazzer> actually
        <spazzer> chew
        <spazzer> i got off your girlfriend this afternoon first
        <ChewToy> spazzer she's fucking hot :)
        <ChewToy> she puts out!
        <spazzer> hence, i said i got off of her first
        <ChewToy> she sucks good dick doesnt she?
        <spazzer> i was getting close, and she told me to put my
        finger in her ass
        <ChewToy> she's a manager at a victorias secret
        <ChewToy> :>
        * KNG_SNK wonders how chew scored that
        <dazemobil> he ordered her in the catalog =o

