        #37729 +(1048)- [X]

        <@NeoPhoenixTE> I see mispelling and faggotry go hand in hnad
        <@NeoPhoenixTE> er
        <@NeoPhoenixTE> hand
        <@NeoPhoenixTE> HAND
        <@NeoPhoenixTE> .. fuck

