        #37954 +(724)- [X]

        [@Unknown_Source] : Dogs are weird and dumb
        [@djjason] : Agreed
        [@Unknown_Source] : I mean, wave the biscuit, and the dumbass
        dogs comes
        * Unknown_Source waves a biscuit
        [Join (#afterhoursdjs)] : [DJAngelicon
        (~DJAngelic@12-231-113-90.client.attbi.com)]
        [@Unknown_Source] : ...

