        #38233 +(485)- [X]

        <SteveTheNormalGuy> link plzzzzzzzzz
        <SteveTheNormalGuy> wait, another z should do it
        <MegamanX2K> x
        <MegamanX2K> err
        <MegamanX2K> damnit
        * MegamanX2K cannot spell "z"

