        #38306 +(164)- [X]

        <kow> heh, lil is too anal
        <kow> I REALLY pissed him off today with that frozen fly
        <_absent> find a photo of a dead cat on images.google
        <_absent> post it on your site
        <_absent> and tell lil you killed that
        <kow> rofl
        <kow> I don't need to use google
        <kow> d:picsdead animals

