        #38580 +(28)- [X]

        <Opie> tell her to sing on aol
        <Puck> To sing on AOL?
        <Opie> that is all she has
        <Puck> I didn't know you could sing on AOL
        <Urban> Keyword: Karaoke

