        #387397 +(443)- [X]

        (OldSkOoLephant) My sister works in a video store
        (ElPresidente) Well my sister IS a video store. >_>
        (Loafaeralus) Yeah pres, everybody's been in her, but only a
        certain amount have paid...

