        #387433 +(588)- [X]

        <OppeSnopp> anyone know how to clear the history out of
        explorer's damned "textbox memory"? (dont
                    wont my wife to get 'black monseter cocks' when
        she's going to do a google that starts          
                    with the letter b)

