        #391193 +(1244)- [X]

        *** Mavert changes topic to 'Men are like cement... after
        getting laid, they take a long time to get hard.
        (EviLGirL-)  Women are like a carpet... lay them right the
        first time and you can walk all over them forever''

