        #3947 +(302)- [X]

        <Digital-^> i love brits , every time i hear someone mention a
        fag break all i can think of is someone knocking on my door ,
        picking me up , and smoking me

