        #39539 +(429)- [X]

        <Bell> It's amazing how many kinds of crumbs you find when
        cleaning your keyboard, I've found
        <Bell> I even found a couple of dead ants.
        <Bell> I'm assuming they perished while trying to retrieve
        said crumbs.

