        #395527 +(594)- [X]

        <Revolution_Man> I want to be launched out of my coffin at my
        funeral.
        <RandomMan> hahah
        <Inferno> Liar.
        <Revolution_Man> With a tape recording attached to the body
        saying "I'M STILL ALIVE, CATCH ME!"

