        #39609 +(171)- [X]

        <hYpOcRiTe> this conversation is weird, from sex to sleep
        <razors_edge> kind of like every night for me
        <hYpOcRiTe> me too, except without the sex :/

