        #40441 +(237)- [X]

        <@CC-Myshra> (Your Mom) + (Your Dad) + (Your Dog) = You
        <@p24t> haha
        <+[PQ3]UlTiMaTeP> wierd...
        <+[PQ3]UlTiMaTeP> no wonder i like to drink out of the toilet

