        #40471 +(291)- [X]

        * Mike grabs a pitcher of ice cold water
        * Mike then pours the ice cold water over narzy
        <Mitch_Shrader> i did that to a skunk once. it was
        educational.
        <Mike> LOL!!!!
        <Mitch_Shrader> the skunk didn't like it much either.

