        #40491 +(135)- [X]

        <DevDuck> how can we you worry about a little speed difference
        when there's such huge problems in the world? like hunger and
        war and my mozilla crashing!?

