        #40518 +(337)- [X]

        <Tamahome> Ryan: "here" being?
        <mdew> .nz of course
        <Tamahome> oh, Europe doesn't count :P
        <mdew> europe?
        <Tamahome> Europe is traditionally a *very slow* gaming market
        <mdew> since when was .nz europe?

