        #406381 +(8078)- [X]

        <Axe> I
        <Axe> do
        <Axe> not
        <Axe> know
        <Axe> where
        <Axe> family
        <Axe> doctors
        <Axe> acquired
        <Axe> illegibly
        <Axe> perplexing
        <Axe> handwriting;
        <Axe> nevertheless,
        <Axe> extraordinary
        <Axe> pharmaceutical
        <Axe> intellectuality,
        <Axe> counterbalancing
        <Axe> indecipherability,
        <Axe> transcendentalizes
        <Axe> intercommunications'
        <Axe> incomprehensibleness.
        <JediHobbes> woah
        <JediHobbes> *blinks*

