        #4087 +(309)- [X]

        <boxed> I still have the marks of her nails on my back I think
        :P
        <jwzrd-> boxed: ahahahahah
        <jwzrd-> boxed: I get marks on my chest :)
        <boxed> well, that happens too
        <jwzrd-> boxed++
        <nightfal> I bruised my right nipple while I was sleeping 3
        nights ago

