        #40902 +(276)- [X]

        <surfer> anyone here
        <surfer> how do i set up an irc script : S
        <surfer> whats the command
        <seven> surfer : there's a limit of 3 stupid questions within
        the first hour of joining, you've only got 1 left.

