        #40928 +(254)- [X]

        <dingo> so i was talking to k-ron on the phone, telling him
        about that cop talking shit aobut 'distribution', and he says
        'bullshit'!
        <dingo> and in the background i hear his sister bitching at
        him for swearing
        <dingo> so he says "shut up, mom says 'shit' all the time!"
        <dingo> and her retort is: 'yeah, but you said the WHOLE word!
        '

