        #41149 +(208)- [X]

        <tfr> i got tired of cyber sex before instant messengers were
        invented
        <JeremyC> hahaha
        <JeremyC> got worn out on 4800bps BBSes did ya
        <tfr> yeah, +++NO CARRIER just before an orgasm is frustrating

