        #412140 +(1702)- [X]

        * Therapist is now known as TheRapist
        <Zvorg> ...
        <JebusCrip> ...
        <Stateobv> dotdotdot
        <TheRapist> What? I like capitalizing random letters..

