        #41771 +(601)- [X]

        <naga> 'dixy normus' won for class princess this year at our
        school
        <naga> at the assembly, they called her name, but she didn't
        come down to take the prize
        <naga> took 'em 5 minutes to figure it out
        <parnbl00d> sounds sexual.
        <parnbl00d> was she absent or somethin?

