        #419746 +(37)- [X]

        <worstazn> yo i need to find a new bitch..
        <mejmanyme> k i have a plan
        <mejmanyme> you running windows or linux?
        <worstazn> winxp....
        <mejmanyme> k, hit start and then "run"
        <mejmanyme> type in "cmd"
        <mejmanyme> after commandprompt opens
        <mejmanyme> type currentbitch /release
        <mejmanyme> then currentbitch /renew
        <mejmanyme> now type currentbitch /all and send the results

