        #42600 +(374)- [X]

        (cow) like if you translate the shit she said into one
        sentence
        (cow) it was pretty much
        (cow) i want cock
        (cow) man i shoulda put quotes round that

