        #42964 +(277)- [X]

        * OverlordQ changes topic to 'Forget Bayes, We need the Stalin
        Mail Filter (TM) -- it detects spam, hunts down the spammer,
        and exiles them to Siberia.'

