        #43000 +(375)- [X]

        <Avalanche> !seen bud
        [@bud] Avalanche, I'm right here. Quit wasting my time!
        <Avalanche> !seen vagina
        [Respecter] lol
        [@bud] Avalanche, I don't remember seeing vagina.
        <Avalanche> why does that not surprise me

