        #4322 +(2492)- [X]

        <FlipTopBox> wow... spam in my hotmail inbox: "See Girls with
        buckets of cum all over their faces!
        <Slant> FlipTopBox: Dude. Give them some credit, it's hard to
        balance a bucket on your face.

