        #43763 +(268)- [X]

        <Want3840> yes, i thought brownouts were caused by excessive
        use of electricity without an adequate supply
        <een> i don't personally care why they happen, cuz i just know
        that they do
        <Want3840> according to the weather channel, as you say, they
        happen more during storms
        <Want3840> oh!
        <Want3840> i figured it out
        <een> YAY
        <Want3840> during storms lightning strikes, and lightning uses
        up all the electricity!
        <Want3840> duh

