        #43787 +(202)- [X]

        <drunknom> I could probaby force myself to be sober, but it's
        toom uch eforroft
        <Zacchaeus> ah well - ya gotta enjoy it - or whats the point?
        <drunknom> preceseisyl

