        #43789 +(-22)- [X]

        <Khrath> U HAVE A SMALL PENIS HAHAHAHAHA
        <Xion33> sad face
        <Xion33> :(
        <Kaladam> sad face
        <Kaladam> little head
        <Kaladam> the life of you
        <Kaladam> small penis head man

