        #440 +(555)- [X]

        <blazemore> we know your hand gets more action jax0ring than
        your feet do walking
        <scar`1> yeah well that's also caused by the fact that i
        hardly walk

