        #444750 +(793)- [X]

        <Ninja>  What if on the next smash there was online gameplay
        and for every bodies colors they could have different moves
        <TestRider>  What if a op barged in here and banned your ass?
        <Ninja>  oh really and who are you?
        <@McFox>  Apparently he's a psychic.

