        #445381 +(350)- [X]

        <PetrDoubt> By the way, you misspelled "B4s74rd."
        <B4s73rd> no way
        <PetrDoubt> way
        <PetrDoubt> It's easy to spell if you remember it has "74rd"
        in it.

