        #45029 +(-77)- [X]

        <kolby> I'm up at UT and my friend fucked Chris Simms but
        would never give me his number, she left her phone here...I'm
        so gonna get laid
        <KenKaniff> Who
        <KenKaniff> Wait
        <kolby> Chris Simms is the QB for U.T.   I don't know, he's
        famous here
        <KenKaniff> Are you a girl?
        <KenKaniff> Because if you arent
        <kolby> and he's also a douche bag
        <KenKaniff> You're talking about getting fucked by a guy
        <kolby> im a guy
        <KenKaniff> And that would make you gay
        <kolby> you're talking about little boys
        <KenKaniff> I'm Ken Kaniff.
        <KenKaniff> Thats what I do
        * kolby was kicked by timmo (GAY KICK)

