        #45341 +(1344)- [X]

        <Lothodrus> time for the sleeping
        <Lothodrus> night
        *** Lothodrus has left #rpgfan
        <Flik> I ought to join him
        <Flik> Well...not literally join him...but join him in thought
        <Flik> Not that I would be thinking about sleeping with him,
        though...
        <Flik> ...
        * Flik sobs quietly

