        #45655 +(840)- [X]

        <The-Virus> hi
        <The-Virus> hello
        <The-Virus> oh
        <The-Virus> heh
        <The-Virus> =\
        <The-Virus> thought someone said hi
        <The-Virus> besides me

