        #46716 +(30)- [X]

        <ateteen> somery: I'm a professional Common Lisp developer and
        faraday-cage technician.
        <sklib> if you mention common lisp again
        <sklib> I will fucking put a knife up your butt
        <sklib> and carve myself a hamburger

