        #46850 +(137)- [X]

        <loucura> She just accused me of having an affair with my
        router.
        <loucura> Route me baby Route me!  Oh!  Oh yah!  Oh!
        <ivan> damnit my packets aren't going through
        <loucura> ivan: That's because you're using the CONDOM flag

