        #46927 +(387)- [X]

        <niglet3> my "father" sent me a mail with an image (joke about
        florida's voting procedure, has a picture of some fisher-price
        toy) -- the source?  forum.incesttaboo.com ...

