        #46954 +(1049)- [X]

        <Usual> i'd convert to catholicism if i could have my book
        back
        <Usual> oh here it is
        <Usual> shit
        <Usual> you think god saw that?

