        #47737 +(439)- [X]

        RamAss has joined #subaru
        <RamAss> subaru is for gooks and niggers
        <RamAss> muahahahah
        <pagan> heh well atleast my nick does not insinuate im a
        homosexual :/

