        #48138 +(-20)- [X]

        <D3adlode> penis
        * Fiona cuts it off and barbeques it
        * D3adlode dies
        <D3adlode> watch out for the creamy filling :d
        <Fiona> Mmmm, cream dawg

