        #48292 +(46)- [X]

        <Pikaben> I find it eerie that Renegadellf knows that I'm
        left-handed.
        <Pikaben> He says that it's because I take forever to
        masturbate.
        <Pikaben> Then he said something about using right-hand
        masturbating techniques.

