        #482940 +(582)- [X]

        abmac: you should listen to more phish
        abmac: and smoke more weed
        speedo: you should smoke less weed
        abmac: psh
        abmac: hey!
        abmac: if you put an "i" in psh
        abmac: it's phish
        abmac: mind-blowing....
        speedo: no it's not, idiot
        speedo: it's pish
        abmac: psh
        abmac: maybe i should smoke less weed

