        #48728 +(141)- [X]

        note: Jdun is from Moldova
        <Puchu> www.manhole.com
        <Puchu> go there jdun
        <Puchu> lots of hot women
        <Puchu> for all your underground slavic women needs
        <Jdun> we are not slavic
        <Puchu> whatever
        <Puchu> balkan then
        <Jdun> not balkan
        <Puchu> must...give...label....
        <Gin> commie
        <Gin> :)
        <Puchu> YES

