        #49349 +(149)- [X]

        <Compute> man I'm going insane here..I hope katie decides not
        to go clubbing tomorrow night :|
        <Mercster> com: so lay down the law and tell her not to go.
        <Compute> merc:  I don't think she'd pay any attention ;)
        * Mercster hands compute the pants.

