        #49449 +(275)- [X]

        <sad|st> grrrrrrrr
        <sad|st> im going to *kill* my ex
        <TblunT> good
        <TblunT> ex's suck
        <TblunT> fuck em
        <sad|st> i spend 20 mins making fresh whipped cream every year
        and she demands i put Cool MotherFucking Whip on her shit
        <sad|st> %&)%&*%&
        <TblunT> sounds like the cream isn't the only thing whipped y0

