        #495464 +(20)- [X]

        <joshua> i hate this... i wish it could be like "what's your
        name sir? " "Josh Nieman" "oh, well here's the exact computer
        that's best for you at a price you love, thank you for
        shopping with Dream On, Asshole Industries"

