        #49572 +(320)- [X]

        MageGal: MageGal: You know what one of the coolest things is?
        BubblyLikeSoda: umm...a duck...?
        MageGal: Baby wipes.
        BubblyLikeSoda: lol
        BubblyLikeSoda: really?
        MageGal: We have no toilet paper downstairs right now, but
        there are babywipes.
        MageGal: I feel so very fresh and clean.

