        #49574 +(29)- [X]

        <Jon> quick
        <Jon> turn to the victorias secret show
        <Jon> theres a present for you :D
        <merc0> mmm...
        <merc0> Wish i could open that present

