        #49757 +(-9)- [X]

        <DeadMouse> you do know what an analogy is right?
        <pantherqs> something to do with anal penetration?
        <pantherqs> like an anal orgy o sorts ?
        <pantherqs> bah. too much bash.org for me. </quit> =P

