        #50269 +(250)- [X]

        <taglin>   ok, so te pretty menu came up and is asking you to
        add drives?
        <suds>   yeh
        <suds>   done that
        <taglin>   k... whats next?
        <suds>   weee
        <suds>   hang on a sec...
        <suds>   need more rum+coke+spritz of lime
        <suds>   :)
        <taglin>   heh
        <taglin>   i think some of the problems with this crazy
        install could be alcohol related

