        #50272 +(95)- [X]

        <Fabio> wooo 47.5$/g for international data from feb next
        year.....
        <Riqizeins_Aggilus> w00t
        <Fabio> and they are complaining that mp3 and dvd rips cost
        the movie industry soo much each year, then they go and do a
        nice thing like make our downloads cheaper...
        <Fabio> i love the way this world works
        <Riqizeins_Aggilus> lol

