        #50292 +(-66)- [X]

        <Eldron> ruba, btw,.  IM THAT BIG GUY WHO IS SCREWING YOUR
        SISTER! HAH!
        <StalkerofurSoul> shes 8!
        <Eldron> the younger the better?
        <Atreides^away> just the way eldron likes them
        <Atreides^away> hairless ;)
        <Rubastic> ... umm, most people like them ... smooth.
        <Eldron> I like them moistorized
        <Yemen> I like em hairless, smooth and moist
        <StalkerofurSoul> does blood count?

