        #50665 +(26)- [X]

        <Unsounder|HW> Mixs
        <Unsounder|HW> didn't you forget to wank?
        <Unsounder|HW> there's porn in 30 mins
        <Mixs-zZZz> Haven't got that chan :/
        <Unsounder|HW> i mean come on....you can't go loaded to school
        <Unsounder|HW> on gymnasium you'll have a hardon constantly
        then :P
        <Mixs-zZZz> Did I tell you about the bombthreat? I think I
        did..
        <Mixs-zZZz> I wanked after that :P
        <Unsounder|HW> ROFL
        <Unsounder|HW> I don't wanna know what you did the 11th sep
        then :P

