        #50784 +(125)- [X]

        <@toad-> I am 0x1E2303BB Seconds old. (5.103407 * ln(-[ln(lim
        [z->0] (1+1/z)^z)])*sqrt(-[sin^2(x) + cos^2(x)])*(-[cosh(y)
        *sqrt(1-tanh^2(y))) years old) (My next birthday is in 51wks
        26mins 45secs)

