        #50940 +(117)- [X]

        <Sn1p3r> Transferred 75 files totaling 3.41 GB in 01:20:20
        (751.53 KBps)
        <Sn1p3r> man, thats a lot of shit
        <[Piratez]> be sure to flush
        <[Piratez]> get a plunger while ur at it, i doubt 3.41gb will
        go down in one flush

