        #50988 +(385)- [X]

        <faR_away-> i won 30 grand
        <faR_away-> so i have some $$$$
        <Toy-MaCHiNE> did u really
        <faR_away-> no i'm just kidding
        <Toy-MaCHiNE> you wouldnt be here if u had 30 grand
        <faR_away-> i know
        <faR_away-> i'd be at mcdonalds

