        #51615 +(441)- [X]

        <TunkeyMicket> HOLY SHIT MY COMPUTER IS BROADCASTING AN IP
        ADDRESS
        <TunkeyMicket> HOW DO I MAKE IT STOP
        <TunkeyMicket> THIS WINDOW CAME UP
        <TunkeyMicket> TOLD ME THAT IT WAS DANGEROUS

