        #51783 +(158)- [X]

        <@Daybreaker> bah
        <@Daybreaker> i got sick oF that bin laden game the first time
        i played it
        <@Daybreaker> like a year ago
        <@Daybreaker> fuck flash games
        <@Blur> hentai?
        <@Daybreaker> shush
        <@Daybreaker> i caN't stand a game where the difficulty levels
        are "poorly made" "badly made" and "free 15 day macromedia
        preview"
        <@Blur> lol
        <@Daybreaker> fuck all that

