        #51830 +(527)- [X]

        <Red_Sky> We'll call it "Shut the hell up", and you'll go
        first. 
        <Red_Sky> Now, the object of this game, Deos, is to shut the
        hell up.
        <Red_Sky> You're doing exceptionally well for a beginner.

