        #518353 +(2185)- [X]

        <lordpil> everyone freeze, this is an irc stickup. don't move
        or i'll DoS ya. gimme all the voice
        <ZorbaTHut> don't hurt me, don't hurt me!
        *** ZorbaTHut sets mode: +v lordpil
        * lordpil runs away with the voice
        *** Parts: lordpil
        <ZorbaTHut> damn! he took our voice
        <stevieo> ....

