        #52282 +(300)- [X]

        <@CoMPLeX[a]> im booting man
        <@CoMPLeX[a]> nite nite
        <@Vedran> now im gonna b bored
        <@CoMPLeX[a]> nah
        <@CoMPLeX[a]> just keep pasting quotes
        <@Inf3kTeZ> lol
        <@CoMPLeX[a]> ill set a timer to say ROFL every 5 mins

