        #53026 +(215)- [X]

        <deim0s> I'm all about discrete mathematics and multivariable
        calculus!
        <virt> that sounds like a sad theonion.com personal ad
        <virt> let me twiddle your integers, baby :(

