        #53584 +(354)- [X]

        <kolby> my mom doesn't even have confidence in me
        <kolby> she was like, hey did you get my e-mail?
        <kolby> and im like "nope, just spam...send it again"
        <kolby> sure enough, she sends it again with the subject
        reading "Don't have a sex life? Enlarge your penis!"

