        #5423 +(186)- [X]

        (Ryco) Sex is bad mmmkay?
        (Cody) oh yes ryco.. send that msg while i'm AWAY!.. sheesh..
        ya know.. my mother gave me the wierdest look a minute ago!

