        #54292 +(180)- [X]

        <Weng> "6. You are rated higher than 55% of the men on this
        site"
        <Weng> My girlfriend didn't even rate me a 10 :/
        <J4k3> she's settling for a 5... inch
        <Weng> She's settling for a lot less than 5 inches

