        #55 +(3932)- [X]

        <Sonique> you know you've just experienced an odd moment at
        3:30am when you're completely naked making an away msg for aim
        and your dad (clothed only in breifs) strolls by, waves, and
        says, "i thought i smelled something. oh well, night!", and
        walks off

