        #5530 +(135)- [X]

        <Spooky> HOLY FUCK
        <Spooky> Send her my way when your done
        <Anton> will do
        <Spooky> I'll knock the mascara off that
        <Spooky> Two little black circles on the wall next to the bed

