        #5536 +(901)- [X]

        *** Joins: meganpreg
        (patricia25@modemcable172.78-202-24.cap.mc.videotron.ca)
        <meganpreg> hi all
        <Ghaleon> hello
        <geoffh> meganpreg on #chatzone #chat #netsex #mindspring #
        CheeseBurger #gameart #gamedev #FSEntertainment #india +#
        pakistan #xxx
        <geoffh> hungry bored pregnant looking-for-sex-chat muslim
        woman (?) looking to develop interactive media in southern
        asia while troubleshooting problems with her ISP
        <MachinShi> lol

