        #560710 +(761)- [X]

        <andkore> can somebody say something positive the government
        has done in the past 5 years? please?
        <gorn> no, you'd have to go to before bush was elected to see
        something positive
        <JuggaloAnt> when clinton banged that chick?
        <gorn> yeah
        <gorn> that was positive
        <gorn> make love not war

