        #56143 +(759)- [X]

        <Dugimodo> ever notice miracles stopped happening when the
        video camera was invented
        <pog> and then they started up again when digital editing came
        by

