        #56498 +(220)- [X]

        <sexy_westie> lmao. . . . . reminds me of a childhood story
        <sexy_westie> my grandmother bought my mother (10yrs old at
        time) a chihuahua pup (cost a bomb apparently) only for the
        cat to eat it in the first day lmao
        <sexy_westie> must have thought it was a yapping rat

