        #56782 +(488)- [X]

        <Hat> I'm the king of giving girls oral sex.  Ask my
        girlfriends.
        <Jeokitty> You're so good at all that, Mark, how good is she?
        <Hat> She fucking sucks dick.
        <Hat> Err
        <Hat> I meant that in a bad way.  Like, she sucks dick... 
        poorly.

