        #56808 +(147)- [X]

        <SJr|Tecra> Someone say something to take my mind off the
        pain.
        <wizer> just pleasure your self you will feel better
        * wizer brb
        <arrow|> probably going to take his own advice

