        #573611 +(2402)- [X]

        <chiby> base? is that another word for acid?
        <spriggan> wtf, when's your chemistry exam?
        <chiby> tomorrow
        <spriggan> hahahahaha, oh man, you're screwed

