        #57565 +(85)- [X]

        <Nephilim> No, I'm going out on a date with a girl that's had
        a thing for me since high school
        <Nephilim> And... she gives head!!!!!!!!!!
        <+jdp> sooo
        <+jdp> she will be repulsed at the sight of you now? ^_^
        <Nephilim> ...
        <+jdp> j/k good luck!!!
        <Nephilim> Damnit

