        #58455 +(825)- [X]

        <Matto20V> get lost
        <uneekwahn> I can't
        <uneekwahn> I have a map
        * Matto20V points at his asshole
        * uneekwahn opens his map for "the grand canyon"

