        #59027 +(-128)- [X]

        <biXen> LMAO, I got kicked from DC because of animal porn?
        WTF?
        <biXen> I dont have any animal porn!
        <biXen> well I guess for some people movies that has black
        guys in them, they can go as animals

