        #593064 +(762)- [X]

        <max> do i need to download the 2nd disc of any movie or just
        the first?
        <Daki> You can download only the first, but the ending is kind
        of a cliffhanger

