        #600242 +(639)- [X]

        <mango> hey your friends are waiting for you down that
        hallway...
        <gremlin> theres nobody there!
        <mango> thats right.. you have no friends

