        #602243 +(1031)- [X]

        <Gunth> before i was a teen i thought "Masturbate" was some
        kind of master or bachelor degree... so when my teachers asked
        me what i wanted to do with my life.. i told them "masturbate"

