        #604881 +(2919)- [X]

        Yikes: Someone sneaked into Rob's back yard and PLANTED A TREE
        this morning
        chunkyq: WHAT?
        Yikes: Like, a seven-foot deciduous sapling. That's the BEST
        act of vandalism EVER

