        #60525 +(1060)- [X]

        <Hostility> so let me get this
        <Hostility> ur in a room with ur comp
        <Hostility> typing on a keyboard... not with ur fingers
        <Hostility> but with ur face
        <Hostility> with nothing on but a hat?
        <ZahanTheThief[B-A]> y6esw

