        #620964 +(-10)- [X]

        <Sordly> One of the worst moments of anyone's life would have
        to when you realize there's only enough peanut butter to cover
        the front half of your body ...
        <Whatanut> That's only a problem until one realizes there's
        still the jelly...
        <Sordly> True, true
        <Madster> Whatanut... ew

