        #621255 +(-96)- [X]

        (+RossH) I don't get tested....I just fuck women.....and tell
        them I have aids......when they freak out....go get tested and
        call me crying from joy because they are clean I know I passed
        (+RossH) I'm cheap

