        #62145 +(272)- [X]

        [ @Treach ] can you hump in the sims online
        [ @qoncept ] Treach, i think so but i dont know how. figures.
        [ @TribalJedi ] you need the love bed i think
        [ @qoncept ] thats stupid why cant you just do it out by the
        dumpster like in real life

