        #625822 +(728)- [X]

        Scott: i need a title for an essay about how i go over and
        above what is asked of me
        Scott: because its a reflection on myself
        Austin: "Second to None: The Story of How I Spit on God"

