        #626457 +(496)- [X]

        <dd> who wants to fight me?
        <i8b4uUnderground> not me
        <i8b4uUnderground> or not i, should i say
        <i8b4uUnderground> or i should say, i should say

