        #62682 +(145)- [X]

        beachbub hi
        beachbub does anyone know if u can turn any image into a html
        code?
        BoB_JonEz no u cant
        BoB_JonEz well you could i suppose
        BoB_JonEz if you made a table of 1x1 cells and set each colour
        individually
        beachbub lol i have no idea wot dat means but thanx anyway
        beachbub thanx 4 da help bye

