        #630789 +(1620)- [X]

        Ziggy: Everytime I hear a strange noise, I have a zombie panic
        attack.
        Lusty: what is it with you and zombies?!
        Ziggy: Are you not afraid of zombies?
        Lusty: they don't exist.
        Ziggy: That's what they think in movies too.
        Ziggy: Right before the invasion.

