        #634090 +(412)- [X]

        <sai sce> what's up?
        <marc> nm, just plotting to kill my psych teacher
        <sai sce> he'd probably be like "THE GUN SHOWS THAT YOU FEAR
        INTIMACY!!!"
        <sai sce> while you were shooting him.

