        #638276 +(185)- [X]

        mattysteppo: tony its my bday
        Agregz82: is it?
        mattysteppo: yeah
        mattysteppo: i'm 42
        Agregz82: happy bday man
        mattysteppo: thx
        Agregz82: im gettin 2 teeth pulled today... so uhhhh thats
        your present
        mattysteppo: nice
        mattysteppo: put em on a necklace for me

