        #638703 +(615)- [X]

        [Jack SkeIIington] my knees have rugburns
        [Jack SkeIIington] from giving out endless blowjobs
        [p-iv] wear knee-pads
        [rahahda] "job interview pads"

