        #64184 +(107)- [X]

        <DigiBree> my uncle once took a huge length of dental floss
        and i asked him what he was doin with it...and he said he was
        going to floss between his bum cheeks......then he went into
        the bathroom :/
        <Rake> lol thats just fucked :P

