        #6434 +(224)- [X]

        <Cheetah> heh, someone else who was on my box didn't like my
        lack of bitchx ...
        <sig11> heh?
        <Cheetah> bitchx
        <Cheetah> BitchX
        <Cheetah> for fucks..
        <Cheetah> (from .bash_history)
        <Cheetah> who actually types things like for fucks.. into
        their shell?

