        #644033 +(597)- [X]

        +BlackSaturn> did you know congress is thinking about making a
        law that has more jail time for dling a copyrighted movie than
        for dling child pr0n?
        @tw> Child porn isn't copyrighted.

