        #651293 +(1365)- [X]

        <Vanion> where is everybody from in here?
        <NemoMac> Indiana
        <Vanion> am I the only american?
        <NemoMac> Last time I checked, Indiana was in the USA..
        <Vanion> wtf?

