        #656312 +(1700)- [X]

        <Razhal> The internet is a beautiful place....
        <Razhal> Because no matter what kind of twisted freak you are,
        you've got a friend out there :D
        <Razhal> You could ask the internet "Find people who have sex
        with goats on fire."
        <Razhal> And internet will ask you, "What kind of goats?"

