        #6571 +(539)- [X]

        <felix> eek
        <skrike> felix just screamed like a girl
        <felix> no, I said "eek"
        <skrike> girls say "eek"
        <skrike> YOU GIRL
        <oat`meal> guys say "oh SHIT, what the FUCK, BITCH"

