        #6656 +(439)- [X]

        (@TRCC|shot): directX 8.1 any good?
        (@landje): i havnet pld it
        (@ui|ICEMAN): dirext X isn't a game
        (@landje): what is it
        (@landje): if any;one puts that in their quit message i'll
        feckign kil ythe,

