        #669969 +(931)- [X]

        <mocker> I just need to do more than play video games on my
        day off
        <Homeworld> but playing games is awesome
        <mocker> I wanna play RL sometime
        <Homeworld> rl is boring
        <Astorite> RL doesn't have enough upgrades.
        <mocker> RL has tons of upgrades, they are just much much
        harder to get
        <mocker> and not as fun
        <Astorite> Well, yeah, I guess it's just a lot harder to gain
        XP and GP.
        <mocker> I need to find myself a 'sploit
        <Astorite> They've got some, but the Mods are hella anal about
        'em.
        <Astorite> They're all like, "Crack isn't a legal income
        producer." or "You have to go to College to say you know how
        to do that skillset."
        <mocker> they are just power-trippin mods jeez

