        #6758 +(293)- [X]

        <Kilroy`> I had this blind date, her name was :. .:. : ... .::
        -
        <Kilroy`> well, all I saw was the top of her head
        <Kilroy`> I wonder if I'll recognize her if I meet her again
        <Kilroy`> .....
        <dh> Kilroy`: I guess you'll just have to make every chick you
        meat give you head
        <dh> err meet
        <dh> but then, meat works too

