        #682046 +(-6)- [X]

        <Raikou`> what if you had a keyboard with a key for every
        character
        <Dratini927> it'd be like, 15'x15'
        <Dratini927> It's like "Brb I gotta go press a"

