        #6828 +(681)- [X]

        <tweet> does n e one else's gf ever told them they wanna fuck
        you with a strapon?
        <Nekorin> Good news, Tweet, you have a girlfriend.
        <Nekorin> Bad news, she's thinks you're gay.

