        #68695 +(290)- [X]

        <Ig[AtWork]> For your pleasure...bad quotes:
        <Ig[AtWork]> Hec-1: I got the japanese version of the bang bus
        <Ig[AtWork]> Last_blade: lol
        <Ig[AtWork]> Last_blade: I bet the japanese version of bang
        bus is called... "SUPER FUN RALLY BANG BUS GO GO GO!!! Make
        Happy strange girl!"

