        #696187 +(1377)- [X]

        <osseh> i have a twin pack of garlic bread in the freezer
        <osseh> on the packet it says "contains 18 servings"
        <osseh> 18 servings from 2 garlic breads?! what the fuck
        <osseh> does it come with a mini jesus inside

