        #69685 +(457)- [X]

        <+AnimeFreak> X-Bahamut, did i have a fag count of 31?
        <+AnimeFreak> err
        <+AnimeFreak> frag
        <@Tenchi> I'm sure your fag count is much higher.

