        #6977 +(489)- [X]

        <ZXPKNOBB> I should make a cereal, where it is potato chips.
        <ZXPKNOBB> And you must eat it in water, not in milk.
        <ZXPKNOBB> It'll be called Gross Flakes.

