        #701105 +(1168)- [X]

        <tC-CS|royce> man
        <tC-CS|royce> the guy at mcdonalds didnt react at all when i
        ordered fillet o fish, no fish, no cheese, extra tartar sauce
        <tC-CS|royce> and i gotta tell you
        <tC-CS|royce> this thing is disgusting.

