        #714459 +(103)- [X]

        * Now talking in #schizophrenia
        * Topic is 'Welcome to chat for suffers and family and friends
        affected by schizophrenia - a brain disease.'
        * Set by para on Tue Nov 14 18:00:23
        <CaffeineBoy> hey
        <CaffeineBoy> so... do you guys make individual usernames for
        your multiple personalities?

