        #715270 +(-220)- [X]

        Thomas says:
        Why do annoying people not realise how fuxing annoying they
        are, yet are the first ones to complain about stuff  :|
        Roland says:
        ie Thomas
        brett says:
        I think you have just answered your own question thomas
        Thomas says:
        sigh
        Thomas says:
        whats the point
         
          Thomas has left the conversation.

