        #7285 +(532)- [X]

        ( Judge`ZzzZ) fmita Khorne-
        ( Khorne-   ) fmita?
        ( Khorne-   ) whats fmita short for? =)
        ( Khorne-   ) "fuck me in the ass?" .p
        ( Judge`ZzzZ) looks like it
        ( Fuzzy     ) you say it that often you need an acronym for
        it?

