        #731134 +(246)- [X]

        <+Acksaw> how do you get 100 babies in a bucket?
        <+crank> 100?
        <+Acksaw> with a blender.
        <+crank> auch
        <+Acksaw> how do you get them back out?
        <+crank> i dunno
        <+Acksaw> with doritos

