        #737130 +(1209)- [X]

        <Nobuyuki`> I just asked a chick why she liked tentacle porn
        so much
        <Nobuyuki`> and she said to me "variety is the spice of life"
        <Nobuyuki`> I asked her "could you be... less vague"
        <Nobuyuki`> and then she said "the worms are the source of all
        spice"
        <Nobuyuki`> fucking nerd chicks !!!!!!

