        #743227 +(477)- [X]

        <BurnStuff>: They asked me if I was bring drugs into Jamaica
        <Kmank>: Bringing drugs to Jamaica?
        <BurnStuff>: Yeah
        <Kmank.: Thats like briging slim-fast to Ethiopia!

