        #743353 +(484)- [X]

        Matt: I reaaaaaaaaaaallly hope the coding for this grade genie
        in our online gradebook is fucked
        Matt: "You final exam score must be 1.20303288341787e^308 for
        Final Average to be 90"

