        #744206 +(-143)- [X]

        <+Tigrael> you're a bash mod now?
        <%kastein> yup.
        <%spock1104> kastein: tell them to stop rejecting quotes that
        rock and accepting quotes that suck
        <%kastein> spock1104: hey
        <%kastein> them includes me now
        * %kastein goes back to being a nazi mod
        <%kastein> MUST THROW MORE QUOTES IN THE OVEN

