        #746293 +(769)- [X]

        <jo> apparently, according to Josh, the Swiss-French border is
        at risk of being sucked in by a black hole
        <jo> they're experimenting with time/space stuff there
        <Lewin> haha
        <Lewin> try staying out of that one, switzerland

