        #74669 +(-2)- [X]

        <[ryan]WIN> i should go up to like
        <[ryan]WIN> the special ed class
        <[ryan]WIN> and find one of those hot retards
        <[ryan]WIN> cuz involuntary drooling makes for good oral

