        #74937 +(626)- [X]

        <Kristy> "You attempt to kick a hobgoblin, but miss."
        <Kristy> :(
        <Kosta> hahahaha level 1
        <Kosta> You have been killed by a stick of butter

