        #75313 +(310)- [X]

        <MongORiaN> a woman in the mens room is SOOOO FUNAY
        <Exor[B-AFK]> a woman in the mens room = awkward
        <Exor[B-AFK]> a man in the womans room = lawsuit

