        #75792 +(126)- [X]

        <puttputt> Who thinks this would taste ok? Spaghetti sauce
        comprising of mince meat, condensed tomato soup, some water,
        onions, garlic
        * Robzy has no idea...
        <puttputt> neither do I.. but it might be alright.. oh, I got
        veggies too so I'll throw them in as well.
        <orlock> sounds fine to me
        <orlock> actually, that sounds damn nice
        <orlock> i'm hungry now
        <orlock> asshole

