        #7610 +(219)- [X]

        <shadok> bo gritz shot himself and only inflicted a flesh
        wound
        <shadok> the quality of american fascism has declined notably
        in recent times
        <shadok> i blame flouride

