        #76402 +(374)- [X]

        <Darric> Dammit. Nothings working.
        <Darric> Maybe my connection died.
        <Darric> Or maybe.... the LAN server died.
        <Darric> Or... THE WORLD'S OVER.
        <Head> that sycks
        <Head> sucks even
        <Darric> Oh. You're still here.
        <Darric> False alarm, everyone.

