        #76697 +(-22)- [X]

        <Etruscan> i guess i have downloaded that much
        <Etruscan> maybe more
        <Etruscan> in 16 days
        <Etruscan> when i downloaded anime :/
        <Etruscan> 200mb a night
        * Etruscan sighs
        <Etruscan> mmm
        <Etruscan> i luv kiddy pr0n
        <Etruscan> i mean
        <Etruscan> anime pr0n
        * Etruscan winks

