        #767016 +(793)- [X]

        Park: oh god
        Park: was hanging out with a couple of my friends who are like
        between the ages of 13-17
        Park: and one of them got ahold of my wallet
        Park: Well, long story short, one of my condoms is now a
        giraffe balloon animal

