        #773519 +(908)- [X]

        <Manson> and I think I had a virus
        <Manson> something about jewish dating
        <GrEmLiN> you got the jew virus?
        <Manson> I think so...
        <Kirby> lemme guess, it took all your cache?

