        #774765 +(702)- [X]

        Prizes_for_contests: Hey, how much would it cost To get
        someone To find me a cost-free downloadable Hentai date sim
        for my mac?
        bommer: what?? lol
        Ich: think you're asking in the wrong place
        Prizes_for_contests: where do i go then?
        Eiljwa: there is no right place to ask something like that

