        #78661 +(915)- [X]

        «@Sheps» Neom, you fucktard
        «@neomonk» ?
        «@Deeps» Pld.
        «@neomonk» stfu dan or i'll gline you. :o
        «@Sheps» I just d/led your script from your website and it has
        all your oper passwords saved
        «@neomonk» wtf?
        ::Snotice-> Sheps is now a Network Administrator
        ***Quits neomonk oper@security.team (Glined(muhahahaha)
        ***Quits deeps deeps@dpc6682041222.direcpc.com (Glined
        (muhahahaha)
        «@Sheps» muahahaha owned
        ***Quits Sheps dan@pcp03341202pcs.danbry01.ct.comcast.net
        (Glined(Network Abuse)
        ::Joins:: neomonk (~john@toronto-hse-ppp3635564.sympatico.ca)
        ***Quits neomonk ~john@toronto-hse-ppp3635564.sympatico.ca
        (Glined(You fucking idiot.)

