        #78820 +(122)- [X]

        <Sh0t> i'll be honest
        <Sh0t> I'd fuck Calista Flockhart
        <tjommi> is that possible?
        <tjommi> my dick is fatter than her
        <Phalanx`> you might break her
        <Phalanx`> be careful there
        <xylol> who cares
        <Sh0t> she gained weight
        <Sh0t> if you've seen her recently
        <DeathVipr> after you blow your load in her, her weight
        doubles
        <tjommi> id like to see that
        <tuffguy> lol dv
        <tjommi> LOL

