        #789709 +(1660)- [X]

        <xchlathx> "Dumbledore returns from the dead and declares it
        to be hammertime, Harry proceeds to break it down, Voldemort
        is unable to touch this."

