        #7898 +(246)- [X]

        <aSSMAGGOT> [badpeon_] all humans have to die
        <paniq> i dont have to
        <paniq> i have won in a lottery for immortality
        <wayfinder> i thought you've won a key fob?
        <jco> an immortal key fob

