        #7931 +(290)- [X]

        <SPACEBOY|GTA3> when the pain stops... thats when you know
        you've kicked the bucket
        <nuggetman> i just read the obituaries to make sure i'm not
        there

