        #806276 +(387)- [X]

        Reject: My best friend crashed on the sofa last night, so I
        left her a note saying come up whenever you wake up.
        Reject: At about 5 in the morning, i'm woken up by laugher.
        Reject: Apparently, I was spooning with my dog.
        Reject: I will *never* live that down

