        #808888 +(265)- [X]

        < Zipper_32> wenko: I'm heading out your way now, you going to
        be up in 3 hours?
        * wenko reads the back of the pill bottle.
        <@wenko> by that time I should consult a physician
        < Zipper_32> Viagra (tm)....

