        #81157 +(209)- [X]

        <Slayer> tbh i cba
        <[S3E]Busy> there u go
        <[S3E]Busy> an entire generation in one sentence
        <Slayer> two abbrivs in one sentance im good
        <[S3E]Busy> i think we have different outlooks on life
        <Slayer> notice i abbrieviated abbrieviate
        <[S3E]Busy> *sigh*

