        #818471 +(508)- [X]

        <BluECliQ> My uncle from South Carolina is visiting for the
        week.
        <BluECliQ> I haven't seen this guy in 10 years and we have
        nothing in common, but I have to make small talk for another 5
        hours until my mom gets home.
        <champlor> what kinda stuff is he into?
        <BluECliQ> He hunts, fishes, drinks and works for a cable
        company.
        <champlor> your uncle is larry the cable guy?
        <BluECliQ> If he says 'git er done', I'm leaving my house.

