        #81852 +(1581)- [X]

        <StuckMojo>    o     \o    \o/   \o    o    <o     <o>    o> 
          o
        <StuckMojo>   .|.     |.    |     /    X     \      |    <|   
        <|>
        <StuckMojo>   / \     >\   /<     >\  /<     >\    /<     >\  
        /<

