        #82085 +(23)- [X]

        <kryonik> IM PRO WAR AND PRO CHOICE
        <kryonik> EAT ME YOU TREE HUGGING HIPPIE BASTARDS
        <kryonik> oh wait
        <kryonik> THEY CANT BECAUSE THEYRE ALL VEGETARIANS

