        #82101 +(33)- [X]

        <Tempis> go pick up some chick
        <Godfather> ¤¤ mp3: [06 - Meat.mp3] ¤¤ [4:03min - 128kbps -
        44.1khz] ¤¤
        <dithi> i'm trying!
        <dithi> it's not that easy, they're stupid but they aren't
        gullible
        <Godfather> true
        <Tempis> they arent as gullible as they used to be
        <Godfather> but they're still stupid
        <dithi> indeed

