        #82109 +(152)- [X]

        <oz0n3> ;p
        --> August8th (party_on_g@someip.com) has joined #thisChan
        <-- August8th has quit (QUIT: )
        <Hacky> well. that was productive
        <oz0n3> we know there's a party on aug 8
        <Twilight> lmao
        <oz0n3> just not where

