        #8242 +(367)- [X]

        <justin> we found a burger king with internet access
        <slash> "free with any purchase"
        <slash> they make it sound like it's a fucking paper bag or
        something
        <justin> haha
        <slash> "two large fries." "would you like some internet with
        those?"

