        #831311 +(881)- [X]

        <Ace073> wtf
        <Ace073> i was just watching australia idol and they called it
        'straya nidol'
        <Ace073> wtf!!
        <Ace073> why perpetuate the idea that we're hillbillies?
        <Ace073> freakin south africa doesnt come on tv and say 'BLACK
        PEEPLE GTFO'
        <Montana> Dude, thats so gay.
        <Ace073> i know.. why dont we just rename the stupid continent
        Straya >_<
        <Montana> No
        <Montana> I mean
        <Montana> You watch Australia Idol

