        #834 +(105)- [X]

        <blazemore> *** Now talking in #bemani
        <blazemore> *** Topic is '<Orchard-L> i heard it sucks monkey
        balls! Monkeys like bananas, kthxgoal'
        <blazemore> *** Set by Onic on Fri Nov 10 22:01:07
        <blazemore> that kthx thing has gone pretty far
        <scar|home> yeah
        <scar|home> the emu skene - #EFNet's l33t lingo cradle since
        1997!
        <scar|home> -# :o
        <blazemore> :o

