        #83659 +(371)- [X]

        * OutLaniz (jalvarez05@alnkjnflkjanskdjnalk.covad.net) has
        joined #Counter-Strike
        * OutLaniz got pussy 2night!
        <OutLaniz> wewt
        <Mr`Fly> why dont you get some friends to so you dont have to
        join irc channels and tell them.

