        #83705 +(111)- [X]

        <jixn> thats because u eat the crust first
        <jixn> if u know what i mean
        <jixn> putt from the ruff
        <jixn> have gay sex etc
        <Antimatter> I've never heard of either of those phrases jinx
        <jixn> i made the first one up myself

