        #837574 +(2490)- [X]

        <anonop> whats your worst sex story?
        <anon> I'll answer with a one-liner.
        <anon> It takes a brave man to swim in the Red waters, but it
        takes a hero to drink from it.

