        #8412 +(140)- [X]

        <Twisty> Fkn ETG banned me for 24 hours :/
        <Twisty> TOok me forever to get back on :(
        *** Twisty has quit IRC (Killed (AdminServ (Insecure
        Connection (Type Insecure HTTP Bounce - Port 3128) - for help
        to get your security fixed plz go here: http://
        help.enterthegame.com/services/security.htm)))

