        #84294 +(80)- [X]

        <Numloxx> hmmm, wonder if i should have chinese tonight
        <Numloxx> yeah... a bit of shaved asian would feel good :)
        <Numloxx> i mean.. umm... sweet and sour pork..
        <Numloxx> wait.. i meant.. umm.. satay chicken and fried rice
        :)

