        #84470 +(317)- [X]

        <Hackster> oh, i crack me up.
        <lophyte> you crack me up too
        <lophyte> *snuggles close to Hackster*
        <lophyte> ;)
        <Hackster> really.
        <Hackster> awww. *lick*
        <lophyte> yay :D
        <p1asm1c> get a dcc chat you two

