        #848 +(138)- [X]

        <ck3k> i wonder how people with parkingson's disease wipe
        their ass
        <ck3k> that must be a fucking trial
        <ck3k> i bet muhammed ali has a whole staff hired just to do
        that

