        #85486 +(1998)- [X]

        <Perrin> FUCKING CANDY BAG
        <Perrin> OPEN
        <Perrin> OPEN]
        <Perrin> OPEN
        <Perrin> ARHAGHAHGS
        <Perrin> NO
        <Perrin> NOT DOWN THE SIDE
        <Perrin> FARHAHFANSKDFASD

