        #8679 +(44)- [X]

        <toNe> Nall is like an xbox
        <Nall> thank you
        <toNe> big, heavy, not fun, and useless!
        <Soopa> good graphics though...
        <Soopa> and easy to develop for...
        <toNe> and you have to pay extra to get all the features
        <Soopa> and will be dead in a year
        <acetonic> and Bill Gates spends Billions on it
        <Nall> who will die

