        #8832 +(451)- [X]

        mike > What do they send you if you send those penis
        enlargement companies some money?
        mike > "No pill, no pumps. Simple exercises you can do at
        home.". I have a feeling I am probably already doing whatever
        it is.

