        #89653 +(104)- [X]

        <SamC42387> hmm here is a random question... can you be taken
        to court if you are 15, and you used your friends picture in a
        funny way on a website, yet they got offended?

