        #898 +(627)- [X]

        <timmo> make me dumplings
        <timmo> and some grit
        <Fustard> grits*
        <Fustard> grit would be dirt, tim
        <timmo> no zach im watchin my weight i only want one grit

