        #8997 +(176)- [X]

        <ChibiLion> i think girls should have the right to show as
        much or as little of their own body as they want..
        <EnZeRuMei> so if there any girls in this nice yet weird chan
        PLEASE for men's sake DONT EVEN PUT CLOTHES ON ( thongs
        allowed ) ( Only pretty girls )
        <ChibiLion> thats not what i ment >.<

