        #899957 +(204)- [X]

        <sparks333> no see, women in engineering are like parking
        spaces
        <sparks333> the good ones are taken and the rest are
        waaaaaaaaaaaaaaaaaaaaay out there
        <pikachu> or handicapped

