        #905920 +(-508)- [X]

        <+Djiem> There, I'm troll-baiting my whole MSN friendlist
        <+Djiem> "Oh shit, know what's happening December 2012 ?!?!"
        <+Djiem> And if anyone asks me what, I'll say "I turn 30"

