        #9085 +(146)- [X]

        <pure_sin> oi!
        <pure_sin> i nearly had a heart attack this morning:/
        <pure_sin> i thought my computer died on me:~(
        <st0w> wow... I'd hate to see what happens when your vibrator
        batteries die

