        #925453 +(314)- [X]

        <<UT> ho//\rzd> just an option:
        <<UT> ho//\rzd>  you tell me where your sentence ends, that
        would help. ;D
        <F3AR | Bailey> i
        <F3AR | Bailey> broke
        <F3AR | Bailey> my
        <F3AR | Bailey> space
        <F3AR | Bailey> bar
        <F3AR | Bailey> lol

