        #925452 +(386)- [X]

        <TheM-netbook> yeah, "god" is a concept more than an actual
        thing or state of being
        <+chaosisorder> Like Duke Nukem Forever?
        <TheM-netbook> haha
        <TheM-netbook> god is vaporware

