        #927751 +(1909)- [X]

        <rdubyaj> dude this car I saw....
        <rdubyaj> was really dusty
        <rdubyaj> and someone had written on it "I wish my wife was
        this dirty"
        <rdubyaj> and underneath that someone else had written "she
        is"

