        #929424 +(5)- [X]

        <earth|drawing>: I've had sex on my period before xD
        <earth|drawing>: that guy didn't mind tho.
        <earth|drawing>: but he was a pig, so yeah.
        <FW>: You had period sex with a WHAT?!
        <earth|drawing>: okay, I'm NOT IMPLYING that I had sex with
        animals, RIGHT? D:

