        #930784 +(493)- [X]

        <mindbomb> anytime anyone refers to themselves as a 'foodie' I
        want to knock their fucking teeth out
        <mindbomb> oh you like to eat food that tastes good?
        congratufuckinglations
        <mindbomb> blog about it

