        #942362 +(967)- [X]

        <sparkhost> report
        <sparkhost> are you alive ?
        <roman> :)
        <sparkhost> it might be zombies as well
        <sparkhost> is 1+1 = 2 ?
        <roman> false
        <roman> 1+1 = 3 use condoms
        <sparkhost> personality hash accepted
        <sparkhost> welcome Roman :D

