        #944801 +(533)- [X]

        <dave> so i was driving.. too fast
        <dave> some female officer took me off the road
        <dave> so i asked "how much?"
        <dave> she: 40 bucks
        <dave> me: alright, get in

