        #948253 +(199)- [X]

        <+GeoFrey> CINCINNATI - A court official in the U.S. says a
        13-year-old boy charged with raping a 5-year-old girl at a
        McDonald's play area is denying the accusation.
        <+GeoFrey> lol wtf?
        <+farted> I'm lovin' it

