        #953228 +(80)- [X]

        Felix the Cat: Not that which goeth into the mouth defileth a
        man; that which cometh out of the mouth defileth a man. 
        (Matthew 15:11)
        Felix the Cat: huzzah i can continue to suck cocks
        mr peabody: you read the bible a lot
        mr peabody: for being a heathen who is going to hell
        Felix the Cat: all i know is apparently the bible says
        swallow, don't spit
        Felix the Cat: A+ advice imo

