        #9575 +(298)- [X]

        <Parc[Cleaning]> I'm starting to worry about my memory :-(
        <Parc[Cleaning]> I was walking along, and it struck me that I
        had to go to the bathroom. So I went to the place, unzipped my
        pants, and then realized I was standing in front of the
        trashcan o_O

