        #9624 +(414)- [X]

        <caspah> I woke up
        <caspah> half on the couch
        <caspah> half off
        <caspah> with no clothes on
        <caspah> and a condom next to ther couch
        <djcrom> used?
        <caspah> yeah
        <caspah> BUT
        <caspah> my gf left last night
        <caspah> she went to a friends
        <caspah> my gf wasn't here
        <Vapno> was your ass sore?
        <caspah> actually yeash

