        #962717 +(257)- [X]

        <Papa_Wa> Anyone else struggling to login?
        <Udungoof> i'm struggling most of the time
        <Udungoof> not necessarily with loginservers though
        <Udongoof> life mostly

