        #963183 +(212)- [X]

        < winter_the_mute> i am both of those things
        < winter_the_mute> sadly i am also a programmer so
        < winter_the_mute> fit and pretty only gets you so far when
        you're autistic
        <@    Riztazz> | there is a 3rd option to it
        <@    Riztazz> | sadly only a handful of men can achieve that
        <@    Riztazz> | and its not something you can do anything
        about
        <@    Riztazz> | well
        <@    Riztazz> | nowdays u can
        <@    Riztazz> | get a big dick
        < winter_the_mute> im black so i got that too
        < winter_the_mute> but last time i whipped my dick out to a
        woman, she moved seats on the bus

