        #97980 +(354)- [X]

        <Knives-> MY MODEM KEEPS DESYNCING.
        * Knives- kicks the modem
        <Knives-> I'll call the ISP
        <Knives-> They'll tell me "It must be something you've
        installed"
        <Knives-> And I'll go "INSTALLING SOMETHING THAT DESYNCS A
        MODEM IS LIKE INSTALLING SOMETHING THAT BLOWS UP A PS/2 MOUSE!
        "
        <Knives-> And then they'll blame the phone company.
        <Knives-> And I'll say FUCK IT.
        <Knives-> And wait until it fixes itself.
        <Knives-> There - saved my self the bother and money of
        calling those pricks.

