        #99887 +(-126)- [X]

        <aNuBiS-> but youre never around :/
        <PeeDC> lol
        <PeeDC> thats cuz im busy with real life these days
        <aNuBiS-> lies
        <PeeDC> i got a kid on route .. due in less than a month .. 
        and no job .. im busy :P
        <aNuBiS-> hmmm, youre black now?
        <PeeDC> hahahah

